<?xml version="1.0" encoding="UTF-8" standalone="no"?>
<!-- Created with Inkscape (http://www.inkscape.org/) -->

<svg
   xmlns:dc="http://purl.org/dc/elements/1.1/"
   xmlns:cc="http://creativecommons.org/ns#"
   xmlns:rdf="http://www.w3.org/1999/02/22-rdf-syntax-ns#"
   xmlns:svg="http://www.w3.org/2000/svg"
   xmlns="http://www.w3.org/2000/svg"
   xmlns:sodipodi="http://sodipodi.sourceforge.net/DTD/sodipodi-0.dtd"
   xmlns:inkscape="http://www.inkscape.org/namespaces/inkscape"
   width="447.88513"
   height="337.93408"
   id="svg2"
   version="1.1"
   inkscape:version="0.48.4 r9939"
   sodipodi:docname="cycle_lifecycle.svg">
  <defs
     id="defs4" />
  <sodipodi:namedview
     id="base"
     pagecolor="#ffffff"
     bordercolor="#666666"
     borderopacity="1.0"
     inkscape:pageopacity="0.0"
     inkscape:pageshadow="2"
     inkscape:zoom="0.98994949"
     inkscape:cx="96.506175"
     inkscape:cy="57.52536"
     inkscape:document-units="px"
     inkscape:current-layer="layer1"
     showgrid="false"
     inkscape:window-width="1920"
     inkscape:window-height="1056"
     inkscape:window-x="0"
     inkscape:window-y="24"
     inkscape:window-maximized="1"
     fit-margin-top="10"
     fit-margin-left="10"
     fit-margin-right="10"
     fit-margin-bottom="10" />
  <metadata
     id="metadata7">
    <rdf:RDF>
      <cc:Work
         rdf:about="">
        <dc:format>image/svg+xml</dc:format>
        <dc:type
           rdf:resource="http://purl.org/dc/dcmitype/StillImage" />
        <dc:title></dc:title>
      </cc:Work>
    </rdf:RDF>
  </metadata>
  <g
     inkscape:label="Layer 1"
     inkscape:groupmode="layer"
     id="layer1"
     transform="translate(-93.85933,-56.295298)">
    <path
       style="fill:none;stroke:#000000;stroke-width:3;stroke-linecap:square;stroke-linejoin:round;stroke-miterlimit:4;stroke-opacity:1;stroke-dasharray:none;stroke-dashoffset:0"
       d="m 379.81736,217.97618 c -19.791,8.93663 -7.89964,13.58823 -1.01016,23.23351"
       id="path2995"
       inkscape:connector-curvature="0" />
    <g
       id="g3936">
      <path
         inkscape:connector-curvature="0"
         id="path2985"
         d="m 253.54829,74.534519 c 12.26309,65.055611 -32.65972,58.588851 66.67007,58.588851 40.93393,0 59.599,13.98634 59.599,-26.26397 0,-10.168796 3.53646,-29.292562 -1.01016,-38.385797 -1.33483,-2.669666 -25.46757,3.35488 -32.32488,4.040611 -30.70682,3.070682 -61.94587,2.020305 -92.93403,2.020305 z"
         style="fill:#ffffff;fill-opacity:1;stroke:#000000;stroke-width:3;stroke-linecap:square;stroke-linejoin:round;stroke-miterlimit:4;stroke-opacity:1;stroke-dasharray:none;stroke-dashoffset:0" />
      <text
         sodipodi:linespacing="125%"
         id="text2997"
         y="109.88986"
         x="292.94424"
         style="font-size:20px;font-style:normal;font-variant:normal;font-weight:normal;font-stretch:normal;line-height:125%;letter-spacing:0px;word-spacing:0px;fill:#000000;fill-opacity:1;stroke:none;font-family:Purisa;-inkscape-font-specification:Purisa"
         xml:space="preserve"><tspan
           style="font-weight:bold"
           y="109.88986"
           x="292.94424"
           id="tspan2999"
           sodipodi:role="line">App</tspan></text>
    </g>
    <path
       style="fill:none;stroke:#000000;stroke-width:3;stroke-linecap:square;stroke-linejoin:round;stroke-miterlimit:4;stroke-opacity:1;stroke-dasharray:none;stroke-dashoffset:0"
       d="m 243.44676,108.87971 c 17.85195,10.35399 7.06312,14.00237 -2.0203,19.19289"
       id="path3015"
       inkscape:connector-curvature="0" />
    <path
       style="fill:none;stroke:#000000;stroke-width:3;stroke-linecap:square;stroke-linejoin:round;stroke-miterlimit:4;stroke-opacity:1;stroke-dasharray:none;stroke-dashoffset:0"
       d="m 405.07117,333.13357 c -16.26594,8.42348 -14.5017,10.9804 -1.01015,22.22336"
       id="path3033"
       inkscape:connector-curvature="0" />
    <path
       style="fill:none;stroke:#000000;stroke-width:3;stroke-linecap:square;stroke-linejoin:round;stroke-miterlimit:4;stroke-opacity:1;stroke-dasharray:none;stroke-dashoffset:0"
       d="m 237.38585,74.534519 c 19.93034,17.740938 22.94773,16.233884 -5.05076,23.233508"
       id="path3037"
       inkscape:connector-curvature="0" />
    <g
       id="g4002">
      <g
         id="g3996">
        <path
           style="fill:#ffffff;fill-opacity:1;stroke:#000000;stroke-width:3;stroke-linecap:square;stroke-linejoin:round;stroke-miterlimit:4;stroke-opacity:1;stroke-dasharray:none;stroke-dashoffset:0"
           d="m 276.7818,324.0422 c 0.89557,5.1482 -5.72126,52.64115 0,54.54823 17.16157,5.72053 91.57596,6.23488 110.10662,-3.03045 3.49748,-1.74874 3.70542,-58.75645 0,-60.60916 -11.7919,-5.89595 -52.2162,3.03046 -67.68022,3.03046 -13.92405,0 -29.44143,2.81467 -42.4264,6.06092 z"
           id="path3023"
           inkscape:connector-curvature="0" />
        <text
           xml:space="preserve"
           style="font-size:20px;font-style:normal;font-variant:normal;font-weight:normal;font-stretch:normal;text-align:center;line-height:125%;letter-spacing:0px;word-spacing:0px;text-anchor:middle;fill:#000000;fill-opacity:1;stroke:none;font-family:Purisa;-inkscape-font-specification:Purisa"
           x="330.58594"
           y="346.22495"
           id="text3025"
           sodipodi:linespacing="125%"><tspan
             sodipodi:role="line"
             id="tspan3027"
             x="330.58594"
             y="346.22495"
             style="font-size:15px;font-weight:bold;text-align:center;text-anchor:middle">HTTP</tspan><tspan
             sodipodi:role="line"
             x="330.58594"
             y="364.97495"
             id="tspan3029"
             style="font-size:15px;font-weight:bold;text-align:center;text-anchor:middle">driver</tspan></text>
      </g>
      <path
         inkscape:connector-curvature="0"
         id="path3031"
         d="m 380.82751,87.666502 c 180.54227,5.261616 136.7536,33.057268 111.11678,186.878218 -1.76127,10.56762 -5.65089,67.40687 -15.15229,73.74114 -17.92753,11.95169 -61.22745,-4.04061 -82.83251,-4.04061"
         style="fill:none;stroke:#000000;stroke-width:3;stroke-linecap:square;stroke-linejoin:round;stroke-miterlimit:4;stroke-opacity:1;stroke-dasharray:none;stroke-dashoffset:0" />
      <path
         inkscape:connector-curvature="0"
         id="path3035"
         d="m 273.75134,349.29601 c -8.12041,0.51098 -130.05463,-0.50005 -130.30968,-1.01015 -6.36286,-12.72572 -23.91444,-260.502117 -19.1929,-263.649816 22.22597,-14.81731 105.48315,5.050763 125.25892,5.050763"
         style="fill:none;stroke:#000000;stroke-width:3;stroke-linecap:square;stroke-linejoin:round;stroke-miterlimit:4;stroke-opacity:1;stroke-dasharray:none;stroke-dashoffset:0" />
      <path
         inkscape:connector-curvature="0"
         id="path3039"
         d="m 524.26917,166.4584 c -76.91806,-18.50073 31.74083,55.54646 0,0 z"
         style="fill:#ffcb46;fill-opacity:1;stroke:#000000;stroke-width:3;stroke-linecap:square;stroke-linejoin:round;stroke-miterlimit:4;stroke-opacity:1;stroke-dasharray:none;stroke-dashoffset:0" />
      <path
         inkscape:connector-curvature="0"
         id="path3041"
         d="m 500.02551,276.56503 c -74.13823,11.42175 40.51957,33.7663 0,0 z"
         style="fill:#3ea1cb;fill-opacity:1;stroke:#000000;stroke-width:3;stroke-linecap:square;stroke-linejoin:round;stroke-miterlimit:4;stroke-opacity:1;stroke-dasharray:none;stroke-dashoffset:0" />
      <path
         inkscape:connector-curvature="0"
         id="path3043"
         d="m 139.40105,208.88481 c -87.021249,-8.09131 22.95753,61.22009 0,0 z"
         style="fill:#82d736;fill-opacity:1;stroke:#000000;stroke-width:3;stroke-linecap:square;stroke-linejoin:round;stroke-miterlimit:4;stroke-opacity:1;stroke-dasharray:none;stroke-dashoffset:0" />
    </g>
    <g
       id="g3973">
      <g
         id="g3964">
        <path
           style="fill:none;stroke:#000000;stroke-width:3;stroke-linecap:square;stroke-linejoin:round;stroke-miterlimit:4;stroke-opacity:1;stroke-dasharray:none;stroke-dashoffset:0"
           d="m 380.82751,112.92032 c 13.94934,7.75641 37.12773,-3.6595 50.50763,3.03045 5.29199,2.646 -2.27472,106.32043 -9.09138,113.13709 -7.62096,7.62097 -48.05477,0.43288 -51.51777,0"
           id="path2993"
           inkscape:connector-curvature="0"
           sodipodi:nodetypes="cssc" />
        <g
           id="g3958">
          <path
             inkscape:connector-curvature="0"
             id="path2991"
             d="m 275.77165,205.85435 c -5.14618,38.32561 -8.04294,46.46702 32.32488,46.46702 27.01385,0 65.36628,13.6841 58.58885,-20.20305 -1.55491,-7.77453 1.4574,-18.29841 -2.02031,-25.25381 -1.26137,-2.52274 -64.09516,-4.10994 -88.89342,-1.01016 z"
             style="fill:#ffffff;fill-opacity:1;stroke:#000000;stroke-width:3;stroke-linecap:square;stroke-linejoin:round;stroke-miterlimit:4;stroke-opacity:1;stroke-dasharray:none;stroke-dashoffset:0" />
          <text
             sodipodi:linespacing="125%"
             id="text3001"
             y="224.03709"
             x="318.35098"
             style="font-size:20px;font-style:normal;font-variant:normal;font-weight:normal;font-stretch:normal;line-height:125%;letter-spacing:0px;word-spacing:0px;fill:#000000;fill-opacity:1;stroke:none;font-family:Purisa;-inkscape-font-specification:Purisa"
             xml:space="preserve"><tspan
               style="font-size:15px;font-weight:bold;text-align:center;text-anchor:middle"
               y="224.03709"
               x="318.35098"
               id="tspan3003"
               sodipodi:role="line">DOM</tspan><tspan
               id="tspan3005"
               style="font-size:15px;font-weight:bold;text-align:center;text-anchor:middle"
               y="242.78709"
               x="318.35098"
               sodipodi:role="line">driver</tspan></text>
        </g>
        <path
           style="fill:#82d736;fill-opacity:1;stroke:#000000;stroke-width:3;stroke-linecap:square;stroke-linejoin:round;stroke-miterlimit:4;stroke-opacity:1;stroke-dasharray:none;stroke-dashoffset:0"
           d="m 438.4062,171.50916 c -72.91382,9.58239 55.2396,27.6198 0,0 z"
           id="path3017"
           inkscape:connector-curvature="0" />
      </g>
      <g
         id="g3845">
        <path
           style="fill:none;stroke:#000000;stroke-width:3;stroke-linecap:square;stroke-linejoin:round;stroke-miterlimit:4;stroke-opacity:1;stroke-dasharray:none;stroke-dashoffset:0"
           d="m 272.74119,227.06755 c -5.77831,-1.35846 -11.26887,-2.0203 -17.1726,-2.0203 -8.46663,0 -28.90747,3.72901 -36.36549,0 -0.62388,-0.31194 -23.65401,-108.88623 -19.1929,-111.11678 12.34603,-6.17301 39.28328,2.5113 51.51778,4.04061"
           id="path3009"
           inkscape:connector-curvature="0" />
        <path
           style="fill:#3ea1cb;fill-opacity:1;stroke:#000000;stroke-width:3;stroke-linecap:square;stroke-linejoin:round;stroke-miterlimit:4;stroke-opacity:1;stroke-dasharray:none;stroke-dashoffset:0"
           d="m 211.12188,137.16397 c -54.54671,14.16322 19.60283,34.30495 0,0 z"
           id="path3019"
           inkscape:connector-curvature="0" />
        <path
           style="fill:#ff6946;fill-opacity:1;stroke:#000000;stroke-width:3;stroke-linecap:square;stroke-linejoin:round;stroke-miterlimit:4;stroke-opacity:1;stroke-dasharray:none;stroke-dashoffset:0"
           d="m 217.1828,177.57008 c -57.12092,28.76944 30.9653,25.80442 0,0 z"
           id="path3813"
           inkscape:connector-curvature="0" />
      </g>
    </g>
  </g>
</svg>
