<?xml version="1.0" encoding="UTF-8" standalone="no"?>
<!-- Created with Inkscape (http://www.inkscape.org/) -->

<svg
   xmlns:dc="http://purl.org/dc/elements/1.1/"
   xmlns:cc="http://creativecommons.org/ns#"
   xmlns:rdf="http://www.w3.org/1999/02/22-rdf-syntax-ns#"
   xmlns:svg="http://www.w3.org/2000/svg"
   xmlns="http://www.w3.org/2000/svg"
   xmlns:sodipodi="http://sodipodi.sourceforge.net/DTD/sodipodi-0.dtd"
   xmlns:inkscape="http://www.inkscape.org/namespaces/inkscape"
   width="701.03815"
   height="367.46396"
   id="svg2"
   version="1.1"
   inkscape:version="0.48.4 r9939"
   sodipodi:docname="react_architecture.svg"
   inkscape:export-filename="/home/vincent/Workspace/blog/source/_drafts/Life-after-React-and-Redux-Cycle-js/react_architecture.png"
   inkscape:export-xdpi="90"
   inkscape:export-ydpi="90">
  <defs
     id="defs4" />
  <sodipodi:namedview
     id="base"
     pagecolor="#ffffff"
     bordercolor="#666666"
     borderopacity="1.0"
     inkscape:pageopacity="1"
     inkscape:pageshadow="2"
     inkscape:zoom="0.98994949"
     inkscape:cx="121.99964"
     inkscape:cy="-13.490327"
     inkscape:document-units="px"
     inkscape:current-layer="layer1"
     showgrid="false"
     inkscape:window-width="1920"
     inkscape:window-height="1056"
     inkscape:window-x="0"
     inkscape:window-y="24"
     inkscape:window-maximized="1"
     fit-margin-top="10"
     fit-margin-left="10"
     fit-margin-right="10"
     fit-margin-bottom="10" />
  <metadata
     id="metadata7">
    <rdf:RDF>
      <cc:Work
         rdf:about="">
        <dc:format>image/svg+xml</dc:format>
        <dc:type
           rdf:resource="http://purl.org/dc/dcmitype/StillImage" />
        <dc:title></dc:title>
      </cc:Work>
    </rdf:RDF>
  </metadata>
  <g
     inkscape:label="Layer 1"
     inkscape:groupmode="layer"
     id="layer1"
     transform="translate(1.5692687,-0.25168735)">
    <path
       style="fill:none;stroke:#000000;stroke-width:3;stroke-linecap:square;stroke-linejoin:round;stroke-miterlimit:4;stroke-opacity:1;stroke-dasharray:none;stroke-dashoffset:0"
       d="m 214.47722,205.47365 c 151.15231,-9.66211 325.25528,15.71503 466.69048,0"
       id="path3001"
       inkscape:connector-curvature="0"
       inkscape:export-filename="/home/vincent/Workspace/blog/source/_drafts/Life-after-React-and-Redux-Cycle-js/react_architecture.png"
       inkscape:export-xdpi="90"
       inkscape:export-ydpi="90" />
    <path
       style="fill:none;stroke:#000000;stroke-width:3;stroke-linecap:square;stroke-linejoin:round;stroke-miterlimit:4;stroke-opacity:1;stroke-dasharray:none;stroke-dashoffset:0"
       d="m 663.99511,186.28076 c 33.20876,19.91951 29.38287,16.66385 4.04061,38.38579"
       id="path3003"
       inkscape:connector-curvature="0"
       inkscape:export-filename="/home/vincent/Workspace/blog/source/_drafts/Life-after-React-and-Redux-Cycle-js/react_architecture.png"
       inkscape:export-xdpi="90"
       inkscape:export-ydpi="90" />
    <path
       style="fill:none;stroke:#000000;stroke-width:3;stroke-linecap:square;stroke-linejoin:round;stroke-miterlimit:4;stroke-opacity:1;stroke-dasharray:none;stroke-dashoffset:0"
       d="m 223.5686,335.60059 c 151.12542,-1.57296 309.68371,-2.02031 457.5991,-2.02031"
       id="path3011"
       inkscape:connector-curvature="0"
       inkscape:export-filename="/home/vincent/Workspace/blog/source/_drafts/Life-after-React-and-Redux-Cycle-js/react_architecture.png"
       inkscape:export-xdpi="90"
       inkscape:export-ydpi="90" />
    <path
       style="fill:none;stroke:#000000;stroke-width:3;stroke-linecap:square;stroke-linejoin:round;stroke-miterlimit:4;stroke-opacity:1;stroke-dasharray:none;stroke-dashoffset:0"
       d="m 663.99511,313.37723 c 42.60419,17.8817 14.2652,28.63911 -5.05077,36.36549"
       id="path3015"
       inkscape:connector-curvature="0"
       inkscape:export-filename="/home/vincent/Workspace/blog/source/_drafts/Life-after-React-and-Redux-Cycle-js/react_architecture.png"
       inkscape:export-xdpi="90"
       inkscape:export-ydpi="90" />
    <path
       style="fill:none;stroke:#000000;stroke-width:3;stroke-linecap:square;stroke-linejoin:round;stroke-miterlimit:4;stroke-opacity:1;stroke-dasharray:none;stroke-dashoffset:0"
       d="m 202.05082,42.8391 c 159.54239,3.25063 319.8775,5.05076 479.82246,5.05076"
       id="path2985"
       inkscape:connector-curvature="0"
       inkscape:export-filename="/home/vincent/Workspace/blog/source/_drafts/Life-after-React-and-Redux-Cycle-js/react_architecture.png"
       inkscape:export-xdpi="90"
       inkscape:export-ydpi="90" />
    <path
       style="fill:none;stroke:#000000;stroke-width:3;stroke-linecap:square;stroke-linejoin:round;stroke-miterlimit:4;stroke-opacity:1;stroke-dasharray:none;stroke-dashoffset:0"
       d="M 664.74129,28.696959 C 688.69076,45.61259 697.64883,55.0678 665.75144,63.04215"
       id="path2987"
       inkscape:connector-curvature="0"
       inkscape:export-filename="/home/vincent/Workspace/blog/source/_drafts/Life-after-React-and-Redux-Cycle-js/react_architecture.png"
       inkscape:export-xdpi="90"
       inkscape:export-ydpi="90" />
    <path
       style="fill:#3ea1cb;fill-opacity:1;stroke:#000000;stroke-width:3;stroke-linecap:square;stroke-linejoin:round;stroke-miterlimit:4;stroke-opacity:1;stroke-dasharray:none;stroke-dashoffset:0"
       d="m 228.61936,33.747722 c -6.19031,-4.428947 -11.90586,5.266738 -8.08122,9.091378 26.20702,26.20702 38.24051,-12.861289 8.08122,-9.091378 z"
       id="path2989"
       inkscape:connector-curvature="0"
       inkscape:export-filename="/home/vincent/Workspace/blog/source/_drafts/Life-after-React-and-Redux-Cycle-js/react_architecture.png"
       inkscape:export-xdpi="90"
       inkscape:export-ydpi="90" />
    <path
       style="fill:#82d736;fill-opacity:1;stroke:#000000;stroke-width:3;stroke-linecap:square;stroke-linejoin:round;stroke-miterlimit:4;stroke-opacity:1;stroke-dasharray:none;stroke-dashoffset:0"
       d="m 385.193,32.737569 c -66.76175,17.863191 52.00308,29.716041 0,0 z"
       id="path2993"
       inkscape:connector-curvature="0"
       inkscape:export-filename="/home/vincent/Workspace/blog/source/_drafts/Life-after-React-and-Redux-Cycle-js/react_architecture.png"
       inkscape:export-xdpi="90"
       inkscape:export-ydpi="90" />
    <path
       style="fill:#ffcb46;fill-opacity:1;stroke:#000000;stroke-width:3;stroke-linecap:square;stroke-linejoin:round;stroke-miterlimit:4;stroke-opacity:1;stroke-dasharray:none;stroke-dashoffset:0"
       d="m 543.78695,39.80864 c -59.3214,7.55661 17.26803,30.21905 0,0 z"
       id="path2995"
       inkscape:connector-curvature="0"
       inkscape:export-filename="/home/vincent/Workspace/blog/source/_drafts/Life-after-React-and-Redux-Cycle-js/react_architecture.png"
       inkscape:export-xdpi="90"
       inkscape:export-ydpi="90" />
    <path
       style="fill:#ff6946;fill-opacity:1;stroke:#000000;stroke-width:3;stroke-linecap:square;stroke-linejoin:round;stroke-miterlimit:4;stroke-opacity:1;stroke-dasharray:none;stroke-dashoffset:0"
       d="m 285.1879,183.2503 c -71.02253,38.69111 47.62249,41.56157 18.18275,12.12183 -7.94631,-7.9463 -13.13109,-3.28143 -18.18275,-12.12183 z"
       id="path3005"
       inkscape:connector-curvature="0"
       inkscape:export-filename="/home/vincent/Workspace/blog/source/_drafts/Life-after-React-and-Redux-Cycle-js/react_architecture.png"
       inkscape:export-xdpi="90"
       inkscape:export-ydpi="90" />
    <path
       style="fill:#3ea1cb;fill-opacity:1;stroke:#000000;stroke-width:3;stroke-linecap:square;stroke-linejoin:round;stroke-miterlimit:4;stroke-opacity:1;stroke-dasharray:none;stroke-dashoffset:0"
       d="m 460.95444,190.32137 c -13.38026,-1.30723 -21.86871,0.7558 -29.29442,13.13198 -19.87109,33.11849 48.6283,20.7023 29.29442,-13.13198 z"
       id="path3007"
       inkscape:connector-curvature="0"
       inkscape:export-filename="/home/vincent/Workspace/blog/source/_drafts/Life-after-React-and-Redux-Cycle-js/react_architecture.png"
       inkscape:export-xdpi="90"
       inkscape:export-ydpi="90" />
    <path
       style="fill:#82d736;fill-opacity:1;stroke:#000000;stroke-width:3;stroke-linecap:square;stroke-linejoin:round;stroke-miterlimit:4;stroke-opacity:1;stroke-dasharray:none;stroke-dashoffset:0"
       d="m 598.33519,191.33152 c -59.15935,3.36554 16.16244,68.89305 16.16244,9.09137 0,-9.64814 -9.94771,-8.31453 -16.16244,-9.09137 z"
       id="path3009"
       inkscape:connector-curvature="0"
       inkscape:export-filename="/home/vincent/Workspace/blog/source/_drafts/Life-after-React-and-Redux-Cycle-js/react_architecture.png"
       inkscape:export-xdpi="90"
       inkscape:export-ydpi="90" />
    <path
       style="fill:#ff6946;fill-opacity:1;stroke:#000000;stroke-width:3;stroke-linecap:square;stroke-linejoin:round;stroke-miterlimit:4;stroke-opacity:1;stroke-dasharray:none;stroke-dashoffset:0"
       d="m 304.3808,317.41784 c -33.28582,9.29224 -20.57867,65.48731 11.11168,23.23351 15.71858,-20.9581 0.96481,-13.16977 -11.11168,-23.23351 z"
       id="path3017"
       inkscape:connector-curvature="0"
       inkscape:export-filename="/home/vincent/Workspace/blog/source/_drafts/Life-after-React-and-Redux-Cycle-js/react_architecture.png"
       inkscape:export-xdpi="90"
       inkscape:export-ydpi="90" />
    <path
       style="fill:#3ea1cb;fill-opacity:1;stroke:#000000;stroke-width:3;stroke-linecap:square;stroke-linejoin:round;stroke-miterlimit:4;stroke-opacity:1;stroke-dasharray:none;stroke-dashoffset:0"
       d="m 469.03566,319.43815 c -4.30337,-12.147 -43.66462,16.68383 -26.26396,28.28427 38.73718,25.82478 35.40086,-52.64932 26.26396,-28.28427 z"
       id="path3019"
       inkscape:connector-curvature="0"
       inkscape:export-filename="/home/vincent/Workspace/blog/source/_drafts/Life-after-React-and-Redux-Cycle-js/react_architecture.png"
       inkscape:export-xdpi="90"
       inkscape:export-ydpi="90" />
    <path
       style="fill:#82d736;fill-opacity:1;stroke:#000000;stroke-width:3;stroke-linecap:square;stroke-linejoin:round;stroke-miterlimit:4;stroke-opacity:1;stroke-dasharray:none;stroke-dashoffset:0"
       d="m 605.40626,314.38738 c -91.75816,8.49634 33.46827,89.24872 0,0 z"
       id="path3021"
       inkscape:connector-curvature="0"
       inkscape:export-filename="/home/vincent/Workspace/blog/source/_drafts/Life-after-React-and-Redux-Cycle-js/react_architecture.png"
       inkscape:export-xdpi="90"
       inkscape:export-ydpi="90" />
    <path
       style="fill:#ff6946;fill-opacity:1;stroke:#000000;stroke-width:3;stroke-linecap:square;stroke-linejoin:round;stroke-miterlimit:4;stroke-opacity:1;stroke-dasharray:none;stroke-dashoffset:0"
       d="m 198.31478,185.2706 c -1.74202,0.75283 -3.89435,-0.0731 -10.10152,3.03046 -5.38949,2.69474 -8.08122,4.35538 -8.08122,11.11168 0,32.66104 74.65435,-7.08318 18.18274,-14.14214 z"
       id="path3023"
       inkscape:connector-curvature="0"
       inkscape:export-filename="/home/vincent/Workspace/blog/source/_drafts/Life-after-React-and-Redux-Cycle-js/react_architecture.png"
       inkscape:export-xdpi="90"
       inkscape:export-ydpi="90" />
    <path
       style="fill:none;stroke:#000000;stroke-width:3;stroke-linecap:square;stroke-linejoin:round;stroke-miterlimit:4;stroke-opacity:1;stroke-dasharray:none;stroke-dashoffset:0"
       d="m 241.75134,53.95077 c 0.37162,5.25413 3.95377,13.23255 5.05076,15.15229"
       id="path3025"
       inkscape:connector-curvature="0"
       inkscape:export-filename="/home/vincent/Workspace/blog/source/_drafts/Life-after-React-and-Redux-Cycle-js/react_architecture.png"
       inkscape:export-xdpi="90"
       inkscape:export-ydpi="90" />
    <path
       style="fill:none;stroke:#000000;stroke-width:3;stroke-linecap:square;stroke-linejoin:round;stroke-miterlimit:4;stroke-opacity:1;stroke-dasharray:none;stroke-dashoffset:0"
       d="m 253.87317,86.27565 c -0.18189,6.61005 1.15571,11.69389 2.02031,15.15229"
       id="path3027"
       inkscape:connector-curvature="0"
       inkscape:export-filename="/home/vincent/Workspace/blog/source/_drafts/Life-after-React-and-Redux-Cycle-js/react_architecture.png"
       inkscape:export-xdpi="90"
       inkscape:export-ydpi="90" />
    <path
       style="fill:none;stroke:#000000;stroke-width:3;stroke-linecap:square;stroke-linejoin:round;stroke-miterlimit:4;stroke-opacity:1;stroke-dasharray:none;stroke-dashoffset:0"
       d="m 264.98485,125.6716 c 2.48052,8.71686 4.866,14.32287 7.07107,20.20305"
       id="path3029"
       inkscape:connector-curvature="0"
       inkscape:export-filename="/home/vincent/Workspace/blog/source/_drafts/Life-after-React-and-Redux-Cycle-js/react_architecture.png"
       inkscape:export-xdpi="90"
       inkscape:export-ydpi="90" />
    <path
       style="fill:none;stroke:#000000;stroke-width:3;stroke-linecap:square;stroke-linejoin:round;stroke-miterlimit:4;stroke-opacity:1;stroke-dasharray:none;stroke-dashoffset:0"
       d="m 274.07622,164.0574 c 0.41634,0.0659 3.91087,11.60284 5.05077,16.16244"
       id="path3031"
       inkscape:connector-curvature="0"
       inkscape:export-filename="/home/vincent/Workspace/blog/source/_drafts/Life-after-React-and-Redux-Cycle-js/react_architecture.png"
       inkscape:export-xdpi="90"
       inkscape:export-ydpi="90" />
    <path
       style="fill:none;stroke:#000000;stroke-width:3;stroke-linecap:square;stroke-linejoin:round;stroke-miterlimit:4;stroke-opacity:1;stroke-dasharray:none;stroke-dashoffset:0"
       d="m 262.96455,176.17923 c 21.99813,7.7138 16.18414,16.12446 28.28427,-5.05076"
       id="path3033"
       inkscape:connector-curvature="0"
       inkscape:export-filename="/home/vincent/Workspace/blog/source/_drafts/Life-after-React-and-Redux-Cycle-js/react_architecture.png"
       inkscape:export-xdpi="90"
       inkscape:export-ydpi="90" />
    <path
       style="fill:none;stroke:#000000;stroke-width:3;stroke-linecap:square;stroke-linejoin:round;stroke-miterlimit:4;stroke-opacity:1;stroke-dasharray:none;stroke-dashoffset:0"
       d="m 384.18285,54.96093 c 4.1212,9.15261 9.12486,19.61892 10.10153,22.22335"
       id="path3041"
       inkscape:connector-curvature="0"
       inkscape:export-filename="/home/vincent/Workspace/blog/source/_drafts/Life-after-React-and-Redux-Cycle-js/react_architecture.png"
       inkscape:export-xdpi="90"
       inkscape:export-ydpi="90" />
    <path
       style="fill:none;stroke:#000000;stroke-width:3;stroke-linecap:square;stroke-linejoin:round;stroke-miterlimit:4;stroke-opacity:1;stroke-dasharray:none;stroke-dashoffset:0"
       d="m 399.33514,90.31626 c 0.25899,6.9132 2.78551,15.18267 4.04061,20.20306"
       id="path3043"
       inkscape:connector-curvature="0"
       inkscape:export-filename="/home/vincent/Workspace/blog/source/_drafts/Life-after-React-and-Redux-Cycle-js/react_architecture.png"
       inkscape:export-xdpi="90"
       inkscape:export-ydpi="90" />
    <path
       style="fill:none;stroke:#000000;stroke-width:3;stroke-linecap:square;stroke-linejoin:round;stroke-miterlimit:4;stroke-opacity:1;stroke-dasharray:none;stroke-dashoffset:0"
       d="m 407.41636,129.71221 c 6.17454,1.22606 7.85465,12.22572 10.10152,21.21321"
       id="path3045"
       inkscape:connector-curvature="0"
       inkscape:export-filename="/home/vincent/Workspace/blog/source/_drafts/Life-after-React-and-Redux-Cycle-js/react_architecture.png"
       inkscape:export-xdpi="90"
       inkscape:export-ydpi="90" />
    <path
       style="fill:none;stroke:#000000;stroke-width:3;stroke-linecap:square;stroke-linejoin:round;stroke-miterlimit:4;stroke-opacity:1;stroke-dasharray:none;stroke-dashoffset:0"
       d="m 295.28943,183.2503 c 5.4556,-3.98666 16.92477,-10.48269 20.20305,-12.12183"
       id="path3053"
       inkscape:connector-curvature="0"
       inkscape:export-filename="/home/vincent/Workspace/blog/source/_drafts/Life-after-React-and-Redux-Cycle-js/react_architecture.png"
       inkscape:export-xdpi="90"
       inkscape:export-ydpi="90" />
    <path
       style="fill:none;stroke:#000000;stroke-width:3;stroke-linecap:square;stroke-linejoin:round;stroke-miterlimit:4;stroke-opacity:1;stroke-dasharray:none;stroke-dashoffset:0"
       d="m 328.62446,165.06755 c 10.81977,-1.89667 22.11339,-1.48773 32.32488,-4.04061"
       id="path3055"
       inkscape:connector-curvature="0"
       inkscape:export-filename="/home/vincent/Workspace/blog/source/_drafts/Life-after-React-and-Redux-Cycle-js/react_architecture.png"
       inkscape:export-xdpi="90"
       inkscape:export-ydpi="90" />
    <path
       style="fill:none;stroke:#000000;stroke-width:3;stroke-linecap:square;stroke-linejoin:round;stroke-miterlimit:4;stroke-opacity:1;stroke-dasharray:none;stroke-dashoffset:0"
       d="m 371.05087,161.02694 c 10.75952,-1.1488 25.9863,2.54753 35.35534,6.06092"
       id="path3057"
       inkscape:connector-curvature="0"
       inkscape:export-filename="/home/vincent/Workspace/blog/source/_drafts/Life-after-React-and-Redux-Cycle-js/react_architecture.png"
       inkscape:export-xdpi="90"
       inkscape:export-ydpi="90" />
    <path
       style="fill:none;stroke:#000000;stroke-width:3;stroke-linecap:square;stroke-linejoin:round;stroke-miterlimit:4;stroke-opacity:1;stroke-dasharray:none;stroke-dashoffset:0"
       d="m 540.7565,71.12337 c 3.53634,6.72998 10.11306,18.20581 12.12183,22.22335"
       id="path3073"
       inkscape:connector-curvature="0"
       inkscape:export-filename="/home/vincent/Workspace/blog/source/_drafts/Life-after-React-and-Redux-Cycle-js/react_architecture.png"
       inkscape:export-xdpi="90"
       inkscape:export-ydpi="90" />
    <path
       style="fill:none;stroke:#000000;stroke-width:3;stroke-linecap:square;stroke-linejoin:round;stroke-miterlimit:4;stroke-opacity:1;stroke-dasharray:none;stroke-dashoffset:0"
       d="m 559.94939,108.49901 c -2.20606,10.22552 2.927,17.24407 4.04061,19.1929"
       id="path3075"
       inkscape:connector-curvature="0"
       inkscape:export-filename="/home/vincent/Workspace/blog/source/_drafts/Life-after-React-and-Redux-Cycle-js/react_architecture.png"
       inkscape:export-xdpi="90"
       inkscape:export-ydpi="90" />
    <path
       style="fill:none;stroke:#000000;stroke-width:3;stroke-linecap:square;stroke-linejoin:round;stroke-miterlimit:4;stroke-opacity:1;stroke-dasharray:none;stroke-dashoffset:0"
       d="m 461.9646,180.21984 c 7.86841,-6.61183 18.86725,-11.50282 25.25381,-15.15229"
       id="path3083"
       inkscape:connector-curvature="0"
       inkscape:export-filename="/home/vincent/Workspace/blog/source/_drafts/Life-after-React-and-Redux-Cycle-js/react_architecture.png"
       inkscape:export-xdpi="90"
       inkscape:export-ydpi="90" />
    <path
       style="fill:none;stroke:#000000;stroke-width:3;stroke-linecap:square;stroke-linejoin:round;stroke-miterlimit:4;stroke-opacity:1;stroke-dasharray:none;stroke-dashoffset:0"
       d="m 503.38085,159.00664 c 10.64296,0.51487 19.97903,-1.73977 30.30458,-3.03046"
       id="path3085"
       inkscape:connector-curvature="0"
       inkscape:export-filename="/home/vincent/Workspace/blog/source/_drafts/Life-after-React-and-Redux-Cycle-js/react_architecture.png"
       inkscape:export-xdpi="90"
       inkscape:export-ydpi="90" />
    <path
       style="fill:none;stroke:#000000;stroke-width:3;stroke-linecap:square;stroke-linejoin:round;stroke-miterlimit:4;stroke-opacity:1;stroke-dasharray:none;stroke-dashoffset:0"
       d="m 423.5788,166.07771 c 3.96776,7.65211 8.10428,12.21408 10.10153,20.20305"
       id="path3089"
       inkscape:connector-curvature="0"
       inkscape:export-filename="/home/vincent/Workspace/blog/source/_drafts/Life-after-React-and-Redux-Cycle-js/react_architecture.png"
       inkscape:export-xdpi="90"
       inkscape:export-ydpi="90" />
    <path
       style="fill:none;stroke:#000000;stroke-width:3;stroke-linecap:square;stroke-linejoin:round;stroke-miterlimit:4;stroke-opacity:1;stroke-dasharray:none;stroke-dashoffset:0"
       d="m 440.75139,165.06755 c -1.93534,38.90645 -3.92071,22.22336 -24.24366,22.22336"
       id="path3091"
       inkscape:connector-curvature="0"
       inkscape:export-filename="/home/vincent/Workspace/blog/source/_drafts/Life-after-React-and-Redux-Cycle-js/react_architecture.png"
       inkscape:export-xdpi="90"
       inkscape:export-ydpi="90" />
    <path
       style="fill:none;stroke:#000000;stroke-width:3;stroke-linecap:square;stroke-linejoin:round;stroke-miterlimit:4;stroke-opacity:1;stroke-dasharray:none;stroke-dashoffset:0"
       d="m 566.01031,138.80359 c 1.01301,4.40249 3.81959,8.1995 6.06091,12.12183"
       id="path3093"
       inkscape:connector-curvature="0"
       inkscape:export-filename="/home/vincent/Workspace/blog/source/_drafts/Life-after-React-and-Redux-Cycle-js/react_architecture.png"
       inkscape:export-xdpi="90"
       inkscape:export-ydpi="90" />
    <path
       style="fill:none;stroke:#000000;stroke-width:3;stroke-linecap:square;stroke-linejoin:round;stroke-miterlimit:4;stroke-opacity:1;stroke-dasharray:none;stroke-dashoffset:0"
       d="m 576.11183,164.0574 c 1.99422,8.12846 5.65,11.15018 9.09138,17.17259"
       id="path3095"
       inkscape:connector-curvature="0"
       inkscape:export-filename="/home/vincent/Workspace/blog/source/_drafts/Life-after-React-and-Redux-Cycle-js/react_architecture.png"
       inkscape:export-xdpi="90"
       inkscape:export-ydpi="90" />
    <path
       style="fill:none;stroke:#000000;stroke-width:3;stroke-linecap:square;stroke-linejoin:round;stroke-miterlimit:4;stroke-opacity:1;stroke-dasharray:none;stroke-dashoffset:0"
       d="m 570.05092,175.16908 c 17.63572,10.90264 11.87845,15.11564 17.17259,-6.06092"
       id="path3101"
       inkscape:connector-curvature="0"
       inkscape:export-filename="/home/vincent/Workspace/blog/source/_drafts/Life-after-React-and-Redux-Cycle-js/react_architecture.png"
       inkscape:export-xdpi="90"
       inkscape:export-ydpi="90" />
    <path
       style="fill:none;stroke:#000000;stroke-width:3;stroke-linecap:square;stroke-linejoin:round;stroke-miterlimit:4;stroke-opacity:1;stroke-dasharray:none;stroke-dashoffset:0"
       d="m 549.84787,156.98633 c 11.41019,-0.62775 15.57602,-0.48868 22.22335,5.05077"
       id="path3103"
       inkscape:connector-curvature="0"
       inkscape:export-filename="/home/vincent/Workspace/blog/source/_drafts/Life-after-React-and-Redux-Cycle-js/react_architecture.png"
       inkscape:export-xdpi="90"
       inkscape:export-ydpi="90" />
    <path
       style="fill:none;stroke:#000000;stroke-width:3;stroke-linecap:square;stroke-linejoin:round;stroke-miterlimit:4;stroke-opacity:1;stroke-dasharray:none;stroke-dashoffset:0"
       d="m 287.20821,229.75793 c -2.93265,5.76473 1.76224,13.45396 2.0203,14.14213"
       id="path3107"
       inkscape:connector-curvature="0"
       inkscape:export-filename="/home/vincent/Workspace/blog/source/_drafts/Life-after-React-and-Redux-Cycle-js/react_architecture.png"
       inkscape:export-xdpi="90"
       inkscape:export-ydpi="90" />
    <path
       style="fill:none;stroke:#000000;stroke-width:3;stroke-linecap:square;stroke-linejoin:round;stroke-miterlimit:4;stroke-opacity:1;stroke-dasharray:none;stroke-dashoffset:0"
       d="m 291.26912,257.03204 c 1.93909,5.98915 2.28852,11.23711 3.03046,17.1726"
       id="path3109"
       inkscape:connector-curvature="0"
       inkscape:export-filename="/home/vincent/Workspace/blog/source/_drafts/Life-after-React-and-Redux-Cycle-js/react_architecture.png"
       inkscape:export-xdpi="90"
       inkscape:export-ydpi="90" />
    <path
       style="fill:none;stroke:#000000;stroke-width:3;stroke-linecap:square;stroke-linejoin:round;stroke-miterlimit:4;stroke-opacity:1;stroke-dasharray:none;stroke-dashoffset:0"
       d="m 296.31988,288.30616 c 2.15661,7.60358 3.03046,11.36828 3.03046,18.18275"
       id="path3115"
       inkscape:connector-curvature="0"
       inkscape:export-filename="/home/vincent/Workspace/blog/source/_drafts/Life-after-React-and-Redux-Cycle-js/react_architecture.png"
       inkscape:export-xdpi="90"
       inkscape:export-ydpi="90" />
    <path
       style="fill:none;stroke:#000000;stroke-width:3;stroke-linecap:square;stroke-linejoin:round;stroke-miterlimit:4;stroke-opacity:1;stroke-dasharray:none;stroke-dashoffset:0"
       d="m 312.46202,296.38738 c -11.17951,19.30533 -13.69071,20.13867 -26.26397,5.05077"
       id="path3117"
       inkscape:connector-curvature="0"
       inkscape:export-filename="/home/vincent/Workspace/blog/source/_drafts/Life-after-React-and-Redux-Cycle-js/react_architecture.png"
       inkscape:export-xdpi="90"
       inkscape:export-ydpi="90" />
    <path
       style="fill:none;stroke:#000000;stroke-width:3;stroke-linecap:square;stroke-linejoin:round;stroke-miterlimit:4;stroke-opacity:1;stroke-dasharray:none;stroke-dashoffset:0"
       d="m 440.75139,232.74777 c -0.717,4.97781 0.45919,9.73438 1.01016,14.14214"
       id="path3119"
       inkscape:connector-curvature="0"
       inkscape:export-filename="/home/vincent/Workspace/blog/source/_drafts/Life-after-React-and-Redux-Cycle-js/react_architecture.png"
       inkscape:export-xdpi="90"
       inkscape:export-ydpi="90" />
    <path
       style="fill:none;stroke:#000000;stroke-width:3;stroke-linecap:square;stroke-linejoin:round;stroke-miterlimit:4;stroke-opacity:1;stroke-dasharray:none;stroke-dashoffset:0"
       d="m 441.76155,260.02189 c -0.29554,6.32319 2.63843,12.42331 4.04061,16.16244"
       id="path3121"
       inkscape:connector-curvature="0"
       inkscape:export-filename="/home/vincent/Workspace/blog/source/_drafts/Life-after-React-and-Redux-Cycle-js/react_architecture.png"
       inkscape:export-xdpi="90"
       inkscape:export-ydpi="90" />
    <path
       style="fill:none;stroke:#000000;stroke-width:3;stroke-linecap:square;stroke-linejoin:round;stroke-miterlimit:4;stroke-opacity:1;stroke-dasharray:none;stroke-dashoffset:0"
       d="m 452.87322,289.31632 c -1.64009,8.3038 3.0278,16.49207 4.04061,19.19289"
       id="path3123"
       inkscape:connector-curvature="0"
       inkscape:export-filename="/home/vincent/Workspace/blog/source/_drafts/Life-after-React-and-Redux-Cycle-js/react_architecture.png"
       inkscape:export-xdpi="90"
       inkscape:export-ydpi="90" />
    <path
       style="fill:none;stroke:#000000;stroke-width:3;stroke-linecap:square;stroke-linejoin:round;stroke-miterlimit:4;stroke-opacity:1;stroke-dasharray:none;stroke-dashoffset:0"
       d="m 442.7717,298.40769 c 10.09629,7.65565 16.77869,17.73803 21.2132,0"
       id="path3125"
       inkscape:connector-curvature="0"
       inkscape:export-filename="/home/vincent/Workspace/blog/source/_drafts/Life-after-React-and-Redux-Cycle-js/react_architecture.png"
       inkscape:export-xdpi="90"
       inkscape:export-ydpi="90" />
    <path
       style="fill:none;stroke:#000000;stroke-width:3;stroke-linecap:square;stroke-linejoin:round;stroke-miterlimit:4;stroke-opacity:1;stroke-dasharray:none;stroke-dashoffset:0"
       d="m 590.25397,232.74777 c -1.10205,3.55214 -0.67343,7.40779 -1.01015,11.11168"
       id="path3129"
       inkscape:connector-curvature="0"
       inkscape:export-filename="/home/vincent/Workspace/blog/source/_drafts/Life-after-React-and-Redux-Cycle-js/react_architecture.png"
       inkscape:export-xdpi="90"
       inkscape:export-ydpi="90" />
    <path
       style="fill:none;stroke:#000000;stroke-width:3;stroke-linecap:square;stroke-linejoin:round;stroke-miterlimit:4;stroke-opacity:1;stroke-dasharray:none;stroke-dashoffset:0"
       d="m 588.23367,258.00159 c -0.85312,5.02305 0.45819,9.72643 1.01015,14.14213"
       id="path3133"
       inkscape:connector-curvature="0"
       inkscape:export-filename="/home/vincent/Workspace/blog/source/_drafts/Life-after-React-and-Redux-Cycle-js/react_architecture.png"
       inkscape:export-xdpi="90"
       inkscape:export-ydpi="90" />
    <path
       style="fill:none;stroke:#000000;stroke-width:3;stroke-linecap:square;stroke-linejoin:round;stroke-miterlimit:4;stroke-opacity:1;stroke-dasharray:none;stroke-dashoffset:0"
       d="m 586.21336,283.2554 c 0.17044,7.46221 0,17.06068 0,20.20305"
       id="path3135"
       inkscape:connector-curvature="0"
       inkscape:export-filename="/home/vincent/Workspace/blog/source/_drafts/Life-after-React-and-Redux-Cycle-js/react_architecture.png"
       inkscape:export-xdpi="90"
       inkscape:export-ydpi="90" />
    <path
       style="fill:none;stroke:#000000;stroke-width:3;stroke-linecap:square;stroke-linejoin:round;stroke-miterlimit:4;stroke-opacity:1;stroke-dasharray:none;stroke-dashoffset:0"
       d="m 572.07122,302.4483 c 21.80258,8.38992 14.91336,9.82994 26.26397,-6.06092"
       id="path3137"
       inkscape:connector-curvature="0"
       inkscape:export-filename="/home/vincent/Workspace/blog/source/_drafts/Life-after-React-and-Redux-Cycle-js/react_architecture.png"
       inkscape:export-xdpi="90"
       inkscape:export-ydpi="90" />
    <g
       id="g4115"
       transform="translate(-551.00515,-43.817254)"
       inkscape:export-filename="/home/vincent/Workspace/blog/source/_drafts/Life-after-React-and-Redux-Cycle-js/react_architecture.png"
       inkscape:export-xdpi="90"
       inkscape:export-ydpi="90">
      <text
         sodipodi:linespacing="125%"
         id="text3139"
         y="91.828941"
         x="556.71588"
         style="font-size:40px;font-style:normal;font-variant:normal;font-weight:normal;font-stretch:normal;line-height:125%;letter-spacing:0px;word-spacing:0px;fill:#000000;fill-opacity:1;stroke:none;font-family:Purisa;-inkscape-font-specification:Purisa"
         xml:space="preserve"><tspan
           y="91.828941"
           x="556.71588"
           id="tspan3141"
           sodipodi:role="line">Actions</tspan></text>
      <g
         id="g3949">
        <text
           xml:space="preserve"
           style="font-size:40px;font-style:normal;font-variant:normal;font-weight:normal;font-stretch:normal;line-height:125%;letter-spacing:0px;word-spacing:0px;fill:#000000;fill-opacity:1;stroke:none;font-family:Purisa;-inkscape-font-specification:Purisa"
           x="575.8479"
           y="259.35181"
           id="text3143"
           sodipodi:linespacing="125%"><tspan
             sodipodi:role="line"
             id="tspan3145"
             x="575.8479"
             y="259.35181">State</tspan></text>
        <text
           xml:space="preserve"
           style="font-size:40px;font-style:normal;font-variant:normal;font-weight:normal;font-stretch:normal;line-height:125%;letter-spacing:0px;word-spacing:0px;fill:#000000;fill-opacity:1;stroke:none;font-family:Purisa;-inkscape-font-specification:Purisa"
           x="582.8783"
           y="389.80362"
           id="text3147"
           sodipodi:linespacing="125%"><tspan
             sodipodi:role="line"
             id="tspan3149"
             x="582.8783"
             y="389.80362">View</tspan></text>
        <text
           xml:space="preserve"
           style="font-size:20px;font-style:normal;font-variant:normal;font-weight:normal;font-stretch:normal;line-height:125%;letter-spacing:0px;word-spacing:0px;fill:#000000;fill-opacity:1;stroke:none;font-family:Purisa;-inkscape-font-specification:Purisa"
           x="637.40625"
           y="163.42793"
           id="text3151"
           sodipodi:linespacing="125%"><tspan
             sodipodi:role="line"
             x="637.40625"
             y="163.42793"
             id="tspan3159">scan()</tspan></text>
        <text
           xml:space="preserve"
           style="font-size:20px;font-style:normal;font-variant:normal;font-weight:normal;font-stretch:normal;line-height:125%;letter-spacing:0px;word-spacing:0px;fill:#000000;fill-opacity:1;stroke:none;font-family:Purisa;-inkscape-font-specification:Purisa"
           x="644.47729"
           y="316.97113"
           id="text3163"
           sodipodi:linespacing="125%"><tspan
             sodipodi:role="line"
             id="tspan3165"
             x="644.47729"
             y="316.97113">map()</tspan></text>
        <path
           style="fill:none;stroke:#000000;stroke-width:3;stroke-linecap:square;stroke-linejoin:round;stroke-miterlimit:4;stroke-opacity:1;stroke-dasharray:none;stroke-dashoffset:0"
           d="m 618.21336,121.00154 c -0.14565,23.4848 2.0203,57.60565 2.0203,75.76144"
           id="path3167"
           inkscape:connector-curvature="0" />
        <path
           style="fill:none;stroke:#000000;stroke-width:3;stroke-linecap:square;stroke-linejoin:round;stroke-miterlimit:4;stroke-opacity:1;stroke-dasharray:none;stroke-dashoffset:0"
           d="m 608.11183,195.75282 c 11.63367,20.99633 18.54565,17.215 27.27412,-6.06091"
           id="path3169"
           inkscape:connector-curvature="0" />
        <path
           style="fill:none;stroke:#000000;stroke-width:3;stroke-linecap:square;stroke-linejoin:round;stroke-miterlimit:4;stroke-opacity:1;stroke-dasharray:none;stroke-dashoffset:0"
           d="m 627.30473,279.59549 c -8.10507,18.8156 -5.05076,41.85878 -5.05076,62.62945"
           id="path3171"
           inkscape:connector-curvature="0" />
        <path
           style="fill:none;stroke:#000000;stroke-width:3;stroke-linecap:square;stroke-linejoin:round;stroke-miterlimit:4;stroke-opacity:1;stroke-dasharray:none;stroke-dashoffset:0"
           d="m 639.38595,328.08281 c -22.55396,25.23936 -13.45465,24.46255 -31.31473,3.03046"
           id="path3179"
           inkscape:connector-curvature="0" />
      </g>
    </g>
    <path
       style="fill:#ff6946;fill-opacity:1;stroke:#000000;stroke-width:3;stroke-linecap:square;stroke-linejoin:round;stroke-miterlimit:4;stroke-opacity:1;stroke-dasharray:none;stroke-dashoffset:0"
       d="m 224.57875,317.60059 c -71.88828,14.63959 47.18144,66.05401 0,0 z"
       id="path4196"
       inkscape:connector-curvature="0"
       inkscape:export-filename="/home/vincent/Workspace/blog/source/_drafts/Life-after-React-and-Redux-Cycle-js/react_architecture.png"
       inkscape:export-xdpi="90"
       inkscape:export-ydpi="90" />
    <path
       style="fill:none;stroke:#000000;stroke-width:3;stroke-linecap:square;stroke-linejoin:round;stroke-miterlimit:4;stroke-opacity:1;stroke-dasharray:none;stroke-dashoffset:0"
       d="m 198.31478,217.59549 c 1.70398,7.7494 2.02031,20.30508 2.02031,26.26396"
       id="path4200"
       inkscape:connector-curvature="0"
       inkscape:export-filename="/home/vincent/Workspace/blog/source/_drafts/Life-after-React-and-Redux-Cycle-js/react_architecture.png"
       inkscape:export-xdpi="90"
       inkscape:export-ydpi="90" />
    <path
       style="fill:none;stroke:#000000;stroke-width:3;stroke-linecap:square;stroke-linejoin:round;stroke-miterlimit:4;stroke-opacity:1;stroke-dasharray:none;stroke-dashoffset:0"
       d="m 201.34524,255.98128 c 5.90373,9.32916 2.66835,18.31636 4.04061,29.29443"
       id="path4202"
       inkscape:connector-curvature="0"
       inkscape:export-filename="/home/vincent/Workspace/blog/source/_drafts/Life-after-React-and-Redux-Cycle-js/react_architecture.png"
       inkscape:export-xdpi="90"
       inkscape:export-ydpi="90" />
    <path
       style="fill:none;stroke:#000000;stroke-width:3;stroke-linecap:square;stroke-linejoin:round;stroke-miterlimit:4;stroke-opacity:1;stroke-dasharray:none;stroke-dashoffset:0"
       d="m 208.41631,294.40769 c 0.55621,5.52536 2.09072,10.96273 4.04061,16.16244"
       id="path4204"
       inkscape:connector-curvature="0"
       inkscape:export-filename="/home/vincent/Workspace/blog/source/_drafts/Life-after-React-and-Redux-Cycle-js/react_architecture.png"
       inkscape:export-xdpi="90"
       inkscape:export-ydpi="90" />
    <path
       style="fill:none;stroke:#000000;stroke-width:3;stroke-linecap:square;stroke-linejoin:round;stroke-miterlimit:4;stroke-opacity:1;stroke-dasharray:none;stroke-dashoffset:0"
       d="m 205.38585,310.52952 c 9.10283,7.24967 8.45857,4.19388 16.16244,-5.05076"
       id="path4212"
       inkscape:connector-curvature="0"
       inkscape:export-filename="/home/vincent/Workspace/blog/source/_drafts/Life-after-React-and-Redux-Cycle-js/react_architecture.png"
       inkscape:export-xdpi="90"
       inkscape:export-ydpi="90" />
    <path
       style="fill:none;stroke:#000000;stroke-width:3;stroke-linecap:square;stroke-linejoin:round;stroke-miterlimit:4;stroke-opacity:1;stroke-dasharray:none;stroke-dashoffset:0"
       d="m 205.38585,176.17923 c 1.90139,-1.71821 3.46118,-5.57806 10.10152,-11.11168"
       id="path4218"
       inkscape:connector-curvature="0"
       inkscape:export-filename="/home/vincent/Workspace/blog/source/_drafts/Life-after-React-and-Redux-Cycle-js/react_architecture.png"
       inkscape:export-xdpi="90"
       inkscape:export-ydpi="90" />
    <path
       style="fill:none;stroke:#000000;stroke-width:3;stroke-linecap:square;stroke-linejoin:round;stroke-miterlimit:4;stroke-opacity:1;stroke-dasharray:none;stroke-dashoffset:0"
       d="m 226.59905,159.00664 c 6.5004,-0.54349 13.54683,-1.56709 17.17259,-2.02031"
       id="path4224"
       inkscape:connector-curvature="0"
       inkscape:export-filename="/home/vincent/Workspace/blog/source/_drafts/Life-after-React-and-Redux-Cycle-js/react_architecture.png"
       inkscape:export-xdpi="90"
       inkscape:export-ydpi="90" />
    <path
       style="fill:none;stroke:#000000;stroke-width:3;stroke-linecap:square;stroke-linejoin:round;stroke-miterlimit:4;stroke-opacity:1;stroke-dasharray:none;stroke-dashoffset:0"
       d="m 252.84271,157.97618 c 9.22735,1.50291 9.41877,5.82867 12.12183,8.08122"
       id="path4226"
       inkscape:connector-curvature="0"
       inkscape:export-filename="/home/vincent/Workspace/blog/source/_drafts/Life-after-React-and-Redux-Cycle-js/react_architecture.png"
       inkscape:export-xdpi="90"
       inkscape:export-ydpi="90" />
  </g>
</svg>
